{
  "projects": [
    {
      "id": 0,
      "title": "Newtspell's Gallery",
      "subTitle": "A unique experience.",
      "project_information": {
        "category": "Developemnt web, gameplay programming",
        "client": "Newtspell studio",
        "project_date": "in progress",
        "project_url": "https://newtspell.tech/",
        "project_gitlab": "private"
      },
      "resume": "I lead the Newtspell's Gallery project, focusing on faithfully translating the artist’s vision to create an engaging and seamless experience for visitors. We are working to gamificate the experience.",
      "text": "I'm the tech lead of the Newtspell's Gallery project, overseeing its entire lifecycle from inception and development to final deployment. The main challenge is to comprehensively grasp and translate the artist's unique vision. Our primary goal is to provide a flawless and captivating experience for all visitors.",
      "stacks": [
        "Unity3D",
        "jsLib",
        "React Three Fiber",
        "Javascript",
        "C#",
        "NodeJS",
        "Ngnix",
        "RSync"
      ],
      "images": {
        "path_1": "images/newtspell_project/layer0.png",
        "path_2": "images/newtspell_project/layer1.png",
        "path_3": "images/newtspell_project/layer2.png",
        "path_4": "images/newtspell_project/layer3.png",
        "path_5": "images/newtspell_project/layer4.png",
        "path_6": "images/newtspell_project/layer5.png",
        "path_7": "images/newtspell_project/layer6.png",
        "path_big_picture": "images/newtspell_project/big_picture.jpg",
        "path_miniature": "images/newtspell_project/gallery.gif"
      }
    },
    {
      "id": 1,
      "title": "EOlife connect",
      "subTitle": "Innovation to help first aid (Covid)",
      "project_information": {
        "category": "React Native",
        "client": "Archeon",
        "project_date": "September 2021 - Octobre 2022",
        "project_url": "https://play.google.com/store/apps/details?id=com.h02",
        "project_gitlab": "Unavailable"
      },
      "resume": "EOlife Connect, available on iOS and Android, transforms ventilation training for cardiac arrest with the user-friendly EOlife X device, providing instant data analysis and easy updates.",
      "text": "EOlife Connect transforms ventilation training with the EOlife X medical device, an easy-to-use yet crucial solution for cardiac arrest situations. Instantly download and analyze a training data, while keeping a EOlife X up-to-date through the app’s intuitive interface. Available on iOS and Android, EOlife Connect is an essential tool for mastering ventilation and ensuring optimal care.",
      "stacks": ["Redux", "React Native", "Javascript"],
      "images": {
        "path_miniature": "images/eolife_connect/miniature.png",
        "path_big_picture": "images/eolife_connect/big_picture.png",
        "path_1": "images/eolife_connect/screen1.png",
        "path_2": "images/eolife_connect/screen2.png",
        "path_3": "images/eolife_connect/screen3.png",
        "path_4": "images/eolife_connect/screen1.png",
        "path_5": "images/eolife_connect/screen2.png",
        "path_6": "images/eolife_connect/screen3.png",
        "path_7": "images/eolife_connect/screen1.png"
      }
    },
     {
      "id": 2,
      "title": "AR experiences",
      "subTitle": "Growth gross sales with an augmented experience",
      "project_information": {
        "category": "React",
        "client": "Organic Grocery store",
        "project_date": "Avril 2024 - May 2022",
        "project_url": "https://play.google.com/store/apps/details?id=com.h02",
        "project_gitlab": "private"
      },
      "resume": "Enhancing the customer experience and boosting their engagement.",
      "text": "I worked with a client to create an immersive experience in their organic product store. And engage their customers in augmented reality activities.",
      "stacks": ["MindAR", "React", "Typescript"],
      "images": {
        "path_miniature": "images/soup_ar/miniature_soup.gif",
        "path_big_picture": "images/soup_ar/big_picture.png",
        "path_1": "images/soup_ar/soup_demo.gif",
        "path_2": "images/soup_ar/soup_demo.gif",
        "path_3": "images/soup_ar/soup_demo.gif",
        "path_4": "images/soup_ar/soup_demo.gif",
        "path_5": "images/soup_ar/soup_demo.gif",
        "path_6": "images/soup_ar/soup_demo.gif",
        "path_7": "images/soup_ar/soup_demo.gif"
      }
    },
    {
      "id": 3,
      "title": "Color Picker",
      "subTitle": "Have fun with sneacker.",
      "project_information": {
        "category": "ThreeJS",
        "client": "Personal project",
        "project_date": "August 2021",
        "project_url": "https://sneaker-colorpicker-rocy8xxqv-contact-iza-devtech.vercel.app/",
        "project_gitlab": "https://gitlab.com/iza-dev/sneaker_and_colorpicker"
      },
      "resume": "This is an exercise to explore the React Three Fiber library.",
      "text": "",
      "stacks": ["React Three Fiber", "React", "Javascript"],
      "images": {
        "path_miniature": "images/color_picker/color_picker.gif"
      }
    },
    {
      "id": 4,
      "title": "Torii",
      "subTitle": "3d assets animated exercise.",
      "project_information": {
        "category": "ThreeJS",
        "client": "Personal project",
        "project_date": "Avril 2021",
        "project_url": "https://tp-yonko.vercel.app/",
        "project_gitlab": "https://gitlab.com/iza-dev/tp-yonko"
      },
      "resume": "This is an exercise to explore animations with the ThreeJS library.",
      "text": "",
      "stacks": ["Javascript", "ThreeJS", "GASAP"],
      "images": {
        "path_miniature": "images/torii/torii.gif"
      }
    },
    {
      "id": 5,
      "title": "GingerBread",
      "subTitle": "3d assets animated exercise.",
      "project_information": {
        "category": "ThreeJS",
        "client": "Personal project",
        "project_date": "Avril 2021",
        "project_url": "https://demo-gingerbread-game.vercel.app/",
        "project_gitlab": "https://gitlab.com/iza-dev/unity-gingerbread-game"
      },
      "resume": "This is an exercise to prototype a mini game experience.",
      "text": "",
      "stacks": ["Unity", "C#", "WebGL"],
      "images": {
        "path_miniature": "images/ginger_bread/gingerBread.gif"
      }
    },
    {
      "id": 6,
      "title": "Endless Road",
      "subTitle": "Test to create an infinite road with a vaporwave style.",
      "project_information": {
        "category": "ThreeJS",
        "client": "Personal project",
        "project_date": "Décembre 2020",
        "project_url": "https://virtual-gallery-newtspell.vercel.app/",
        "project_gitlab": "https://gitlab.com/iza-dev/virtual-gallery-newtspell"
      },
      "resume": "Creating a vaporwave project provides a unique opportunity to explore artistic and experimental concepts in the field of 3D web design.",
      "text": "",
      "stacks": ["Javascript", "ThreeJS", "GLSL"],
      "images": {
        "path_miniature": "images/infinite_road/infinite_road.gif"
      }
    }
  ]
}
